simulation/qsim/LogicalStep_Lab4.msim.vcd
$comment
	File created using the following command:
		vcd file LogicalStep_Lab4.msim.vcd -direction
$end
$date
	Tue Jul 18 22:48:44 2023
$end
$version
	ModelSim Version 10.4b
$end
$timescale
	1ps
$end

$scope module LogicalStep_Lab4_top_vlg_vec_tst $end
$var reg 1 ! clkin_50 $end
$var reg 4 " pb_n [3:0] $end
$var reg 1 # rst_n $end
$var reg 8 $ sw [7:0] $end
$var wire 1 % blink_sigout $end
$var wire 1 & leds [7] $end
$var wire 1 ' leds [6] $end
$var wire 1 ( leds [5] $end
$var wire 1 ) leds [4] $end
$var wire 1 * leds [3] $end
$var wire 1 + leds [2] $end
$var wire 1 , leds [1] $end
$var wire 1 - leds [0] $end
$var wire 1 . seg7_char1 $end
$var wire 1 / seg7_char2 $end
$var wire 1 0 seg7_data [6] $end
$var wire 1 1 seg7_data [5] $end
$var wire 1 2 seg7_data [4] $end
$var wire 1 3 seg7_data [3] $end
$var wire 1 4 seg7_data [2] $end
$var wire 1 5 seg7_data [1] $end
$var wire 1 6 seg7_data [0] $end
$var wire 1 7 sm_clkenout $end

$scope module i1 $end
$var wire 1 8 gnd $end
$var wire 1 9 vcc $end
$var wire 1 : unknown $end
$var tri1 1 ; devclrn $end
$var tri1 1 < devpor $end
$var tri1 1 = devoe $end
$var wire 1 > pb_n[2]~input_o $end
$var wire 1 ? pb_n[3]~input_o $end
$var wire 1 @ sw[0]~input_o $end
$var wire 1 A sw[1]~input_o $end
$var wire 1 B sw[2]~input_o $end
$var wire 1 C sw[3]~input_o $end
$var wire 1 D sw[4]~input_o $end
$var wire 1 E sw[5]~input_o $end
$var wire 1 F sw[6]~input_o $end
$var wire 1 G sw[7]~input_o $end
$var wire 1 H seg7_data[6]~output_o $end
$var wire 1 I leds[0]~output_o $end
$var wire 1 J leds[1]~output_o $end
$var wire 1 K leds[2]~output_o $end
$var wire 1 L leds[3]~output_o $end
$var wire 1 M leds[4]~output_o $end
$var wire 1 N leds[5]~output_o $end
$var wire 1 O leds[6]~output_o $end
$var wire 1 P leds[7]~output_o $end
$var wire 1 Q sm_clkenout~output_o $end
$var wire 1 R blink_sigout~output_o $end
$var wire 1 S seg7_data[0]~output_o $end
$var wire 1 T seg7_data[1]~output_o $end
$var wire 1 U seg7_data[2]~output_o $end
$var wire 1 V seg7_data[3]~output_o $end
$var wire 1 W seg7_data[4]~output_o $end
$var wire 1 X seg7_data[5]~output_o $end
$var wire 1 Y seg7_char1~output_o $end
$var wire 1 Z seg7_char2~output_o $end
$var wire 1 [ clkin_50~input_o $end
$var wire 1 \ CLOCK_GEN|clk_divider:counter[0]~1_combout $end
$var wire 1 ] rst_n~input_o $end
$var wire 1 ^ PB_FILL|rst_n_filtered~0_combout $end
$var wire 1 _ SYNC_RST|dout~q $end
$var wire 1 ` CLOCK_GEN|clk_divider:counter[0]~q $end
$var wire 1 a CLOCK_GEN|clk_divider:counter[0]~2 $end
$var wire 1 b CLOCK_GEN|clk_divider:counter[1]~1_combout $end
$var wire 1 c CLOCK_GEN|clk_divider:counter[1]~q $end
$var wire 1 d CLOCK_GEN|clk_divider:counter[1]~2 $end
$var wire 1 e CLOCK_GEN|clk_divider:counter[2]~1_combout $end
$var wire 1 f CLOCK_GEN|clk_divider:counter[2]~q $end
$var wire 1 g CLOCK_GEN|clk_divider:counter[2]~2 $end
$var wire 1 h CLOCK_GEN|clk_divider:counter[3]~1_combout $end
$var wire 1 i CLOCK_GEN|clk_divider:counter[3]~q $end
$var wire 1 j CLOCK_GEN|clk_divider:counter[3]~2 $end
$var wire 1 k CLOCK_GEN|clk_divider:counter[4]~1_combout $end
$var wire 1 l CLOCK_GEN|clk_divider:counter[4]~q $end
$var wire 1 m CLOCK_GEN|clk_reg_extend~0_combout $end
$var wire 1 n CLOCK_GEN|clk_reg_extend~1_combout $end
$var wire 1 o CLOCK_GEN|sm_clken~combout $end
$var wire 1 p pb_n[0]~input_o $end
$var wire 1 q PB_FILL|pb_n_filtered[0]~0_combout $end
$var wire 1 r SYNC_NS|dout~q $end
$var wire 1 s HOLDREG_NS|sreg~0_combout $end
$var wire 1 t HOLDREG_NS|sreg~q $end
$var wire 1 u pb_n[1]~input_o $end
$var wire 1 v PB_FILL|pb_n_filtered[1]~1_combout $end
$var wire 1 w SYNC_EW|dout~q $end
$var wire 1 x HOLDREG_EW|sreg~0_combout $end
$var wire 1 y HOLDREG_EW|sreg~q $end
$var wire 1 z MOORE_MAC|Selector2~0_combout $end
$var wire 1 { MOORE_MAC|current_state.s15~q $end
$var wire 1 | MOORE_MAC|current_state~28_combout $end
$var wire 1 } MOORE_MAC|current_state.s0~q $end
$var wire 1 ~ MOORE_MAC|current_state~29_combout $end
$var wire 1 !! MOORE_MAC|current_state.s1~q $end
$var wire 1 "! MOORE_MAC|current_state~18_combout $end
$var wire 1 #! MOORE_MAC|current_state.s2~q $end
$var wire 1 $! MOORE_MAC|current_state~19_combout $end
$var wire 1 %! MOORE_MAC|current_state.s3~q $end
$var wire 1 &! MOORE_MAC|current_state~20_combout $end
$var wire 1 '! MOORE_MAC|current_state.s4~q $end
$var wire 1 (! MOORE_MAC|current_state~21_combout $end
$var wire 1 )! MOORE_MAC|current_state.s5~q $end
$var wire 1 *! MOORE_MAC|Selector0~1_combout $end
$var wire 1 +! MOORE_MAC|Selector0~2_combout $end
$var wire 1 ,! MOORE_MAC|current_state.s6~q $end
$var wire 1 -! MOORE_MAC|current_state~30_combout $end
$var wire 1 .! MOORE_MAC|current_state.s7~q $end
$var wire 1 /! MOORE_MAC|current_state~26_combout $end
$var wire 1 0! MOORE_MAC|current_state.s8~q $end
$var wire 1 1! MOORE_MAC|current_state~27_combout $end
$var wire 1 2! MOORE_MAC|current_state.s9~q $end
$var wire 1 3! MOORE_MAC|current_state~22_combout $end
$var wire 1 4! MOORE_MAC|current_state.s10~q $end
$var wire 1 5! MOORE_MAC|current_state~23_combout $end
$var wire 1 6! MOORE_MAC|current_state.s11~q $end
$var wire 1 7! MOORE_MAC|current_state~24_combout $end
$var wire 1 8! MOORE_MAC|current_state.s12~q $end
$var wire 1 9! MOORE_MAC|current_state~25_combout $end
$var wire 1 :! MOORE_MAC|current_state.s13~q $end
$var wire 1 ;! MOORE_MAC|Selector1~0_combout $end
$var wire 1 <! MOORE_MAC|current_state.s14~q $end
$var wire 1 =! CLOCK_GEN|blink_sig~0_combout $end
$var wire 1 >! CLOCK_GEN|blink_sig~q $end
$var wire 1 ?! SEVENSEG_MUX|clk_proc:COUNT[0]~0_combout $end
$var wire 1 @! SEVENSEG_MUX|clk_proc:COUNT[0]~q $end
$var wire 1 A! SEVENSEG_MUX|clk_proc:COUNT[1]~1_combout $end
$var wire 1 B! SEVENSEG_MUX|clk_proc:COUNT[1]~q $end
$var wire 1 C! SEVENSEG_MUX|clk_proc:COUNT[1]~2 $end
$var wire 1 D! SEVENSEG_MUX|clk_proc:COUNT[2]~1_combout $end
$var wire 1 E! SEVENSEG_MUX|clk_proc:COUNT[2]~q $end
$var wire 1 F! SEVENSEG_MUX|clk_proc:COUNT[2]~2 $end
$var wire 1 G! SEVENSEG_MUX|clk_proc:COUNT[3]~1_combout $end
$var wire 1 H! SEVENSEG_MUX|clk_proc:COUNT[3]~q $end
$var wire 1 I! SEVENSEG_MUX|clk_proc:COUNT[3]~2 $end
$var wire 1 J! SEVENSEG_MUX|clk_proc:COUNT[4]~1_combout $end
$var wire 1 K! SEVENSEG_MUX|clk_proc:COUNT[4]~q $end
$var wire 1 L! SEVENSEG_MUX|clk_proc:COUNT[4]~2 $end
$var wire 1 M! SEVENSEG_MUX|clk_proc:COUNT[5]~1_combout $end
$var wire 1 N! SEVENSEG_MUX|clk_proc:COUNT[5]~q $end
$var wire 1 O! SEVENSEG_MUX|clk_proc:COUNT[5]~2 $end
$var wire 1 P! SEVENSEG_MUX|clk_proc:COUNT[6]~1_combout $end
$var wire 1 Q! SEVENSEG_MUX|clk_proc:COUNT[6]~q $end
$var wire 1 R! SEVENSEG_MUX|clk_proc:COUNT[6]~2 $end
$var wire 1 S! SEVENSEG_MUX|clk_proc:COUNT[7]~1_combout $end
$var wire 1 T! SEVENSEG_MUX|clk_proc:COUNT[7]~q $end
$var wire 1 U! SEVENSEG_MUX|clk_proc:COUNT[7]~2 $end
$var wire 1 V! SEVENSEG_MUX|clk_proc:COUNT[8]~1_combout $end
$var wire 1 W! SEVENSEG_MUX|clk_proc:COUNT[8]~q $end
$var wire 1 X! SEVENSEG_MUX|clk_proc:COUNT[8]~2 $end
$var wire 1 Y! SEVENSEG_MUX|clk_proc:COUNT[9]~1_combout $end
$var wire 1 Z! SEVENSEG_MUX|clk_proc:COUNT[9]~q $end
$var wire 1 [! SEVENSEG_MUX|clk_proc:COUNT[9]~2 $end
$var wire 1 \! SEVENSEG_MUX|clk_proc:COUNT[10]~1_combout $end
$var wire 1 ]! SEVENSEG_MUX|clk_proc:COUNT[10]~q $end
$var wire 1 ^! SEVENSEG_MUX|DOUT[3]~4_combout $end
$var wire 1 _! MOORE_MAC|Selector0~0_combout $end
$var wire 1 `! SEVENSEG_MUX|DOUT[3]~5_combout $end
$var wire 1 a! MOORE_MAC|WideOr6~0_combout $end
$var wire 1 b! MOORE_MAC|WideOr3~0_combout $end
$var wire 1 c! SEVENSEG_MUX|DOUT[3]~6_combout $end
$var wire 1 d! SEVENSEG_MUX|DOUT_TEMP[6]~0_combout $end
$var wire 1 e! SEVENSEG_MUX|DOUT_TEMP[6]~1_combout $end
$var wire 1 f! SEVENSEG_MUX|DOUT[0]~0_combout $end
$var wire 1 g! SEVENSEG_MUX|DOUT[0]~1_combout $end
$var wire 1 h! SEVENSEG_MUX|DOUT[0]~2_combout $end
$var wire 1 i! SEVENSEG_MUX|DOUT[0]~3_combout $end
$var wire 1 j! SYNC_EW|sreg [1] $end
$var wire 1 k! SYNC_EW|sreg [0] $end
$var wire 1 l! SYNC_RST|sreg [1] $end
$var wire 1 m! SYNC_RST|sreg [0] $end
$var wire 1 n! PB_FILL|sreg0 [3] $end
$var wire 1 o! PB_FILL|sreg0 [2] $end
$var wire 1 p! PB_FILL|sreg0 [1] $end
$var wire 1 q! PB_FILL|sreg0 [0] $end
$var wire 1 r! CLOCK_GEN|clk_reg_extend [1] $end
$var wire 1 s! CLOCK_GEN|clk_reg_extend [0] $end
$var wire 1 t! SYNC_NS|sreg [1] $end
$var wire 1 u! SYNC_NS|sreg [0] $end
$var wire 1 v! PB_FILL|sreg4 [3] $end
$var wire 1 w! PB_FILL|sreg4 [2] $end
$var wire 1 x! PB_FILL|sreg4 [1] $end
$var wire 1 y! PB_FILL|sreg4 [0] $end
$var wire 1 z! PB_FILL|sreg1 [3] $end
$var wire 1 {! PB_FILL|sreg1 [2] $end
$var wire 1 |! PB_FILL|sreg1 [1] $end
$var wire 1 }! PB_FILL|sreg1 [0] $end
$upscope $end
$upscope $end
$enddefinitions $end
#0
$dumpvars
0!
bx11 "
1#
bx0xxx $
0%
0-
0,
0+
0*
0)
0(
0'
0&
1.
0/
16
05
04
03
02
01
00
07
08
19
x:
1;
1<
1=
x>
x?
x@
xA
xB
0C
xD
xE
xF
xG
0H
0I
0J
0K
0L
0M
0N
0O
0P
0Q
0R
1S
0T
0U
0V
0W
0X
1Y
0Z
0[
1\
1]
1^
0_
0`
0a
0b
0c
1d
0e
0f
0g
0h
0i
1j
0k
0l
0m
0n
0o
1p
1q
0r
0s
0t
1u
1v
0w
0x
0y
0z
0{
1|
0}
1~
0!!
0"!
0#!
0$!
0%!
0&!
0'!
0(!
0)!
0*!
0+!
0,!
0-!
0.!
0/!
00!
01!
02!
03!
04!
05!
06!
07!
08!
09!
0:!
0;!
0<!
0=!
0>!
1?!
0@!
0A!
0B!
0C!
0D!
0E!
1F!
0G!
0H!
0I!
0J!
0K!
1L!
0M!
0N!
0O!
0P!
0Q!
1R!
0S!
0T!
0U!
0V!
0W!
1X!
0Y!
0Z!
0[!
0\!
0]!
0^!
0_!
0`!
1a!
1b!
0c!
0d!
0e!
0f!
0g!
0h!
0i!
0k!
0j!
0m!
0l!
0q!
0p!
0o!
0n!
0s!
0r!
0u!
0t!
0y!
0x!
0w!
0v!
0}!
0|!
0{!
0z!
$end
#10000
1!
1[
1@!
1`
1j!
1}!
1t!
1q!
1l!
1y!
1a
1A!
0?!
0\
1b
#20000
0!
0[
#30000
1!
1[
1B!
0@!
1c
0`
1k!
1|!
1u!
1p!
1m!
1x!
0d
0a
1?!
0b
1\
0v
0q
0^
1d
1e
1b
0e
#40000
0#
0!
0[
0]
#50000
1!
1[
1@!
1w
1r
1`
0j!
1{!
0t!
1o!
1_
0l!
1w!
0y!
1P
1C!
1a
1&
0A!
0?!
1x
1s
0\
0~
0|
0d
1D!
0b
1e
0u!
0k!
#60000
0!
0[
#70000
1!
1[
1E!
0B!
0@!
1z!
1n!
0c
0`
1v!
0m!
0x!
0F!
0C!
1d
0a
0D!
1?!
1b
1\
1F!
1G!
1D!
0e
0b
0G!
#80000
0!
0[
#90000
1!
1[
1@!
0_
0w!
0P
0&
1A!
0?!
1~
1|
#100000
0!
0[
#110000
1!
1[
1B!
0@!
0w
0r
1`
0v!
1y
1t
1J
1L
1a
1*
1,
1?!
0\
1^
1b
#120000
0!
0[
#130000
1!
1[
1@!
1c
0`
1l!
1C!
0d
0a
0A!
0?!
0b
1\
0F!
1d
0D!
1e
1b
1G!
0e
#140000
0!
0[
#150000
1!
1[
1H!
0E!
0B!
0@!
1`
1m!
1I!
1F!
0C!
1a
0G!
1D!
1?!
0\
0I!
0d
1J!
1G!
0D!
0b
0J!
1e
#160000
0!
0[
#170000
1!
1[
1@!
1f
0c
0`
1_
1P
1g
1d
0a
1&
1A!
0?!
0e
1b
1\
0~
0|
0g
1h
1e
0b
0h
0t
0y
0L
0J
0,
0*
0s
0x
#180000
0!
0[
#190000
1!
1[
1B!
0@!
0f
1?!
0e
#200000
0!
0[
#210000
1!
1[
1@!
1C!
0A!
0?!
1D!
#220000
0!
0[
#230000
1!
1[
1E!
0B!
0@!
0F!
0C!
0D!
1?!
1I!
1F!
0G!
1D!
0I!
1J!
1G!
0J!
#240000
0!
0[
#250000
1!
1[
1@!
1A!
0?!
#260000
0!
0[
#270000
1!
1[
1B!
0@!
1?!
#280000
0!
0[
#290000
1!
1[
1@!
1C!
0A!
0?!
0F!
0D!
1I!
0G!
1J!
#300000
0!
0[
#310000
1!
1[
1K!
0H!
0E!
0B!
0@!
0L!
0I!
1F!
0C!
0J!
1G!
1D!
1?!
1L!
1M!
1J!
0G!
0D!
0M!
#320000
1#
0!
0[
1]
#330000
1!
1[
1@!
1y!
1A!
0?!
#340000
0!
0[
#350000
1!
1[
1B!
0@!
1x!
1?!
0^
#360000
0!
0[
#370000
1!
1[
1@!
0l!
1w!
1C!
0A!
0?!
1D!
#380000
0!
0[
#390000
1!
1[
1E!
0B!
0@!
1v!
0m!
0F!
0C!
0D!
1?!
1F!
1G!
1D!
0G!
#400000
0!
0[
#410000
1!
1[
1@!
0_
0P
0&
1A!
0?!
1~
1|
#420000
0!
0[
#430000
1!
1[
1B!
0@!
1`
1a
1?!
0\
1b
#440000
0!
0[
#450000
1!
1[
1@!
1c
0`
1C!
0d
0a
0A!
0?!
0b
1\
0F!
1d
0D!
1e
1b
1G!
0e
#460000
0!
0[
#470000
1!
1[
1H!
0E!
0B!
0@!
1`
1I!
1F!
0C!
1a
0G!
1D!
1?!
0\
0L!
0I!
0d
0J!
1G!
0D!
0b
1L!
1M!
1J!
1e
0M!
#480000
0!
0[
#490000
1!
1[
1@!
1f
0c
0`
1g
1d
0a
1A!
0?!
1=!
0e
1b
1\
0g
1h
1e
0b
0h
#500000
0!
0[
#510000
1!
1[
1B!
0@!
1`
1>!
1R
1a
1%
1?!
0\
1b
#520000
0!
0[
#530000
1!
1[
1@!
1c
0`
1C!
0d
0a
0A!
0?!
0b
1\
1g
1d
1D!
0e
1b
0g
1h
1e
0h
#540000
0!
0[
#550000
1!
1[
1E!
0B!
0@!
1`
0F!
0C!
1a
0D!
1?!
0\
1I!
1F!
0d
0G!
1D!
0b
0L!
0I!
1g
0J!
1G!
0e
1L!
1M!
1J!
1h
0M!
#560000
0!
0[
#570000
1!
1[
1@!
1i
0f
0c
0`
0j
0g
1d
0a
1A!
0?!
0h
0=!
1e
1b
1\
1j
1k
1h
0e
0b
0k
#580000
0!
0[
#590000
1!
1[
1B!
0@!
1`
0>!
0R
1a
0%
1?!
0\
1b
#600000
0!
0[
#610000
1!
1[
1@!
1c
0`
1C!
0d
0a
0A!
0?!
0b
1\
0F!
1d
0D!
1e
1b
1I!
0G!
0e
0L!
0J!
1M!
#620000
0!
0[
#630000
1!
1[
1N!
0K!
0H!
0E!
0B!
0@!
1`
1O!
1L!
0I!
1F!
0C!
1a
0M!
1J!
1G!
1D!
1?!
0\
0O!
0d
1P!
1M!
0J!
0G!
0D!
0b
0P!
1e
#640000
0!
0[
#650000
1!
1[
1@!
1f
0c
0`
1g
1d
0a
1A!
0?!
1=!
0e
1b
1\
0j
0g
0h
1e
0b
1j
1k
1h
0k
#660000
0!
0[
#670000
1!
1[
1B!
0@!
1`
1>!
1R
1a
1%
1?!
0\
1b
#680000
0!
0[
#690000
1!
1[
1@!
1c
0`
1C!
0d
0a
0A!
0?!
0b
1\
1g
1d
1D!
0e
1b
0j
0g
0h
1e
1j
1k
1h
0k
#700000
0!
0[
#710000
1!
1[
1E!
0B!
0@!
1`
0F!
0C!
1a
0D!
1?!
0\
1F!
0d
1G!
1D!
0b
1g
0G!
0e
0j
0h
1k
#720000
0!
0[
#730000
1!
1[
1@!
1l
0i
0f
0c
0`
1j
0g
1d
0a
1A!
0?!
1m
0k
1h
0=!
1e
1b
1\
1k
0h
0e
0b
#740000
0!
0[
#750000
1!
1[
1B!
0@!
1s!
1`
0>!
0R
1a
0%
1?!
1o
1n
0\
1Q
17
1b
1!!
1}
1"!
0~
#760000
0!
0[
#770000
1!
1[
1@!
1r!
1c
0`
1C!
0d
0a
0A!
0?!
0o
0b
1\
0Q
0F!
1d
07
0D!
1e
1b
1G!
0e
#780000
0!
0[
#790000
1!
1[
1H!
0E!
0B!
0@!
1`
1I!
1F!
0C!
1a
0G!
1D!
1?!
0\
0I!
0d
1J!
1G!
0D!
0b
0J!
1e
#800000
0!
0[
#810000
1!
1[
1@!
1f
0c
0`
1g
1d
0a
1A!
0?!
1=!
0e
1b
1\
0g
1h
1e
0b
0h
#820000
0!
0[
#830000
1!
1[
1B!
0@!
1`
1>!
1R
1a
1%
1?!
0\
1b
#840000
0!
0[
#850000
1!
1[
1@!
1c
0`
1C!
0d
0a
0A!
0?!
0b
1\
1g
1d
1D!
0e
1b
0g
1h
1e
0h
#860000
0!
0[
#870000
1!
1[
1E!
0B!
0@!
1`
0F!
0C!
1a
0D!
1?!
0\
1I!
1F!
0d
0G!
1D!
0b
0I!
1g
1J!
1G!
0e
0J!
1h
#880000
0!
0[
#890000
1!
1[
1@!
1i
0f
0c
0`
0j
0g
1d
0a
1A!
0?!
0h
0=!
1e
1b
1\
1j
0k
1h
0e
0b
1k
#900000
0!
0[
#910000
1!
1[
1B!
0@!
1`
0>!
0R
1a
0%
1?!
0\
1b
#920000
0!
0[
#930000
1!
1[
1@!
1c
0`
1C!
0d
0a
0A!
0?!
0b
1\
0F!
1d
0D!
1e
1b
1I!
0G!
0e
1J!
#940000
0!
0[
#950000
1!
1[
1K!
0H!
0E!
0B!
0@!
1`
0L!
0I!
1F!
0C!
1a
0J!
1G!
1D!
1?!
0\
1O!
1L!
0d
0M!
1J!
0G!
0D!
0b
0O!
1P!
1M!
1e
0P!
#960000
0!
0[
#970000
1!
1[
1@!
1f
0c
0`
1g
1d
0a
1A!
0?!
1=!
0e
1b
1\
0j
0g
0h
1e
0b
1j
0k
1h
1k
#980000
0!
0[
#990000
1!
1[
1B!
0@!
1`
1>!
1R
1a
1%
1?!
0\
1b
#1000000
0!
0[
#1010000
1!
1[
1@!
1c
0`
1C!
0d
0a
0A!
0?!
0b
1\
1g
1d
1D!
0e
1b
0j
0g
0h
1e
1j
0k
1h
1k
#1020000
0!
0[
#1030000
1!
1[
1E!
0B!
0@!
1`
0F!
0C!
1a
0D!
1?!
0\
1F!
0d
1G!
1D!
0b
1g
0G!
0e
0j
0h
0k
#1040000
0!
0[
#1050000
1!
1[
1@!
0l
0i
0f
0c
0`
1j
0g
1d
0a
1A!
0?!
0m
1k
1h
0=!
1e
1b
1\
0k
0h
0e
0b
#1060000
0!
0[
#1070000
1!
1[
1B!
0@!
0s!
1`
0>!
0R
1a
0%
1?!
0n
0\
1b
#1080000
0!
0[
#1090000
1!
1[
1@!
0r!
1c
0`
1C!
0d
0a
0A!
0?!
0b
1\
0F!
1d
0D!
1e
1b
1G!
0e
#1100000
0!
0[
#1110000
1!
1[
1H!
0E!
0B!
0@!
1`
1I!
1F!
0C!
1a
0G!
1D!
1?!
0\
0L!
0I!
0d
0J!
1G!
0D!
0b
1O!
1L!
0M!
1J!
1e
0O!
1P!
1M!
0P!
#1120000
0!
0[
#1130000
1!
1[
1@!
1f
0c
0`
1g
1d
0a
1A!
0?!
1=!
0e
1b
1\
0g
1h
1e
0b
0h
#1140000
0!
0[
#1150000
1!
1[
1B!
0@!
1`
1>!
1R
1a
1%
1?!
0\
1b
#1160000
0!
0[
#1170000
1!
1[
1@!
1c
0`
1C!
0d
0a
0A!
0?!
0b
1\
1g
1d
1D!
0e
1b
0g
1h
1e
0h
#1180000
0!
0[
#1190000
1!
1[
1E!
0B!
0@!
1`
0F!
0C!
1a
0D!
1?!
0\
1I!
1F!
0d
0G!
1D!
0b
0L!
0I!
1g
0J!
1G!
0e
1O!
1L!
0M!
1J!
1h
0O!
1P!
1M!
0P!
#1200000
0!
0[
#1210000
1!
1[
1@!
1i
0f
0c
0`
0j
0g
1d
0a
1A!
0?!
0h
0=!
1e
1b
1\
1j
1k
1h
0e
0b
0k
#1220000
0!
0[
#1230000
1!
1[
1B!
0@!
1`
0>!
0R
1a
0%
1?!
0\
1b
#1240000
0!
0[
#1250000
1!
1[
1@!
1c
0`
1C!
0d
0a
0A!
0?!
0b
1\
0F!
1d
0D!
1e
1b
1I!
0G!
0e
0L!
0J!
1O!
0M!
1P!
#1260000
0!
0[
#1270000
1!
1[
1Q!
0N!
0K!
0H!
0E!
0B!
0@!
1`
0R!
0O!
1L!
0I!
1F!
0C!
1a
0P!
1M!
1J!
1G!
1D!
1?!
0\
1R!
0d
1S!
1P!
0M!
0J!
0G!
0D!
0b
0S!
1e
#1280000
0!
0[
#1290000
1!
1[
1@!
1f
0c
0`
1g
1d
0a
1A!
0?!
1=!
0e
1b
1\
0j
0g
0h
1e
0b
1j
1k
1h
0k
#1300000
0!
0[
#1310000
1!
1[
1B!
0@!
1`
1>!
1R
1a
1%
1?!
0\
1b
#1320000
0!
0[
#1330000
1!
1[
1@!
1c
0`
1C!
0d
0a
0A!
0?!
0b
1\
1g
1d
1D!
0e
1b
0j
0g
0h
1e
1j
1k
1h
0k
#1340000
0!
0[
#1350000
1!
1[
1E!
0B!
0@!
1`
0F!
0C!
1a
0D!
1?!
0\
1F!
0d
1G!
1D!
0b
1g
0G!
0e
0j
0h
1k
#1360000
0!
0[
#1370000
1!
1[
1@!
1l
0i
0f
0c
0`
1j
0g
1d
0a
1A!
0?!
1m
0k
1h
0=!
1e
1b
1\
1k
0h
0e
0b
#1380000
0!
0[
#1390000
1!
1[
1B!
0@!
1s!
1`
0>!
0R
1a
0%
1?!
1o
1n
0\
1Q
17
1b
1#!
0!!
0b!
1_!
1$!
0"!
1I
1-
#1400000
0!
0[
#1410000
1!
1[
1@!
1r!
1c
0`
1C!
0d
0a
0A!
0?!
0o
0b
1\
0Q
0F!
1d
07
0D!
1e
1b
1G!
0e
#1420000
0!
0[
#1430000
1!
1[
1H!
0E!
0B!
0@!
1`
1I!
1F!
0C!
1a
0G!
1D!
1?!
0\
0I!
0d
1J!
1G!
0D!
0b
0J!
1e
#1440000
0!
0[
#1450000
1!
1[
1@!
1f
0c
0`
1g
1d
0a
1A!
0?!
1=!
0e
1b
1\
0g
1h
1e
0b
0h
#1460000
0!
0[
#1470000
1!
1[
1B!
0@!
1`
1>!
1R
1a
1%
1?!
0\
1b
#1480000
0!
0[
#1490000
1!
1[
1@!
1c
0`
1C!
0d
0a
0A!
0?!
0b
1\
1g
1d
1D!
0e
1b
0g
1h
1e
0h
#1500000
0!
0[
#1510000
1!
1[
1E!
0B!
0@!
1`
0F!
0C!
1a
0D!
1?!
0\
1I!
1F!
0d
0G!
1D!
0b
0I!
1g
1J!
1G!
0e
0J!
1h
#1520000
0!
0[
#1530000
1!
1[
1@!
1i
0f
0c
0`
0j
0g
1d
0a
1A!
0?!
0h
0=!
1e
1b
1\
1j
0k
1h
0e
0b
1k
#1540000
0!
0[
#1550000
1!
1[
1B!
0@!
1`
0>!
0R
1a
0%
1?!
0\
1b
#1560000
bx10 "
0!
0[
0p
#1570000
1!
1[
1@!
1c
0`
0q!
1C!
0d
0a
0A!
0?!
0b
1\
0F!
1d
0D!
1e
1b
1I!
0G!
0e
1J!
#1580000
0!
0[
#1590000
1!
1[
1K!
0H!
0E!
0B!
0@!
1`
0p!
0L!
0I!
1F!
0C!
1a
0J!
1G!
1D!
1?!
0\
1L!
0d
1M!
1J!
0G!
0D!
0b
0M!
1e
#1600000
0!
0[
#1610000
1!
1[
1@!
1f
0c
0`
0o!
1g
1d
0a
1A!
0?!
1=!
0e
1b
1\
0j
0g
0h
1e
0b
1j
0k
1h
1k
#1620000
0!
0[
#1630000
1!
1[
1B!
0@!
0n!
1`
1>!
1R
1a
1%
1?!
1q
0\
1b
#1640000
bx11 "
0!
0[
1p
#1650000
1!
1[
1@!
1c
0`
1t!
1q!
1C!
0d
0a
0A!
0?!
0b
1\
1g
1d
1D!
0e
1b
0j
0g
0h
1e
1j
0k
1h
1k
#1660000
0!
0[
#1670000
1!
1[
1E!
0B!
0@!
1`
1u!
1p!
0F!
0C!
1a
0D!
1?!
0\
0q
1F!
0d
1G!
1D!
0b
1g
0G!
0e
0j
0h
0k
#1680000
0!
0[
#1690000
1!
1[
1@!
1r
0l
0i
0f
0c
0`
0t!
1o!
1j
0g
1d
0a
1A!
0?!
1s
0m
1k
1h
0=!
1e
1b
1\
0k
0h
0e
0b
#1700000
0!
0[
#1710000
1!
1[
1B!
0@!
1n!
0s!
1`
0>!
1t
0u!
1J
0R
1a
0%
1,
1?!
0n
0\
1b
#1720000
0!
0[
#1730000
1!
1[
1@!
0r
0r!
1c
0`
1C!
0d
0a
0A!
0?!
0b
1\
0F!
1d
0D!
1e
1b
1G!
0e
#1740000
0!
0[
#1750000
1!
1[
1H!
0E!
0B!
0@!
1`
1I!
1F!
0C!
1a
0G!
1D!
1?!
0\
0L!
0I!
0d
0J!
1G!
0D!
0b
1L!
1M!
1J!
1e
0M!
#1760000
bx01 "
0!
0[
0u
#1770000
1!
1[
1@!
1f
0c
0`
0}!
1g
1d
0a
1A!
0?!
1=!
0e
1b
1\
0g
1h
1e
0b
0h
#1780000
0!
0[
#1790000
1!
1[
1B!
0@!
1`
1>!
0|!
1R
1a
1%
1?!
0\
1b
#1800000
0!
0[
#1810000
1!
1[
1@!
1c
0`
0{!
1C!
0d
0a
0A!
0?!
0b
1\
1g
1d
1D!
0e
1b
0g
1h
1e
0h
#1820000
0!
0[
#1830000
1!
1[
1E!
0B!
0@!
0z!
1`
0F!
0C!
1a
0D!
1?!
1v
0\
1I!
1F!
0d
0G!
1D!
0b
0L!
0I!
1g
0J!
1G!
0e
1L!
1M!
1J!
1h
0M!
#1840000
bx11 "
0!
0[
1u
#1850000
1!
1[
1@!
1i
0f
0c
0`
1j!
1}!
0j
0g
1d
0a
1A!
0?!
0h
0=!
1e
1b
1\
1j
1k
1h
0e
0b
0k
#1860000
0!
0[
#1870000
1!
1[
1B!
0@!
1`
0>!
1k!
1|!
0R
1a
0%
1?!
0\
0v
1b
#1880000
0!
0[
#1890000
1!
1[
1@!
1w
1c
0`
0j!
1{!
1C!
0d
0a
0A!
0?!
1x
0b
1\
0F!
1d
0D!
1e
1b
1I!
0G!
0e
0L!
0J!
1M!
#1900000
0!
0[
#1910000
1!
1[
1N!
0K!
0H!
0E!
0B!
0@!
1z!
1`
1y
0k!
1L
1O!
1L!
0I!
1F!
0C!
1a
1*
0M!
1J!
1G!
1D!
1?!
0\
0R!
0O!
0d
0P!
1M!
0J!
0G!
0D!
0b
1R!
1S!
1P!
1e
0S!
#1920000
0!
0[
#1930000
1!
1[
1@!
0w
1f
0c
0`
1g
1d
0a
1A!
0?!
1=!
0e
1b
1\
0j
0g
0h
1e
0b
1j
1k
1h
0k
#1940000
0!
0[
#1950000
1!
1[
1B!
0@!
1`
1>!
1R
1a
1%
1?!
0\
1b
#1960000
0!
0[
#1970000
1!
1[
1@!
1c
0`
1C!
0d
0a
0A!
0?!
0b
1\
1g
1d
1D!
0e
1b
0j
0g
0h
1e
1j
1k
1h
0k
#1980000
0!
0[
#1990000
1!
1[
1E!
0B!
0@!
1`
0F!
0C!
1a
0D!
1?!
0\
1F!
0d
1G!
1D!
0b
1g
0G!
0e
0j
0h
1k
#2000000
0!
0[
#2010000
1!
1[
1@!
1l
0i
0f
0c
0`
1j
0g
1d
0a
1A!
0?!
1m
0k
1h
0=!
1e
1b
1\
1k
0h
0e
0b
#2020000
0!
0[
#2030000
1!
1[
1B!
0@!
1s!
1`
0>!
0R
1a
0%
1?!
1o
1n
0\
1Q
17
1b
1%!
0#!
1&!
0$!
#2040000
0!
0[
