simulation/qsim/LogicalStep_Lab4.msim.vcd
$comment
	File created using the following command:
		vcd file LogicalStep_Lab4.msim.vcd -direction
$end
$date
	Thu Jul 20 09:33:38 2023
$end
$version
	ModelSim Version 10.5b
$end
$timescale
	1ps
$end

$scope module logicalstep_lab4_top_vhd_vec_tst $end
$var wire 1 ! blink_sigout $end
$var wire 1 " clkin_50 $end
$var wire 1 # leds [7] $end
$var wire 1 $ leds [6] $end
$var wire 1 % leds [5] $end
$var wire 1 & leds [4] $end
$var wire 1 ' leds [3] $end
$var wire 1 ( leds [2] $end
$var wire 1 ) leds [1] $end
$var wire 1 * leds [0] $end
$var wire 1 + pb_n [3] $end
$var wire 1 , pb_n [2] $end
$var wire 1 - pb_n [1] $end
$var wire 1 . pb_n [0] $end
$var wire 1 / rst_n $end
$var wire 1 0 seg7_char1 $end
$var wire 1 1 seg7_char2 $end
$var wire 1 2 seg7_data [6] $end
$var wire 1 3 seg7_data [5] $end
$var wire 1 4 seg7_data [4] $end
$var wire 1 5 seg7_data [3] $end
$var wire 1 6 seg7_data [2] $end
$var wire 1 7 seg7_data [1] $end
$var wire 1 8 seg7_data [0] $end
$var wire 1 9 seg7_test1 [6] $end
$var wire 1 : seg7_test1 [5] $end
$var wire 1 ; seg7_test1 [4] $end
$var wire 1 < seg7_test1 [3] $end
$var wire 1 = seg7_test1 [2] $end
$var wire 1 > seg7_test1 [1] $end
$var wire 1 ? seg7_test1 [0] $end
$var wire 1 @ seg7_test2 [6] $end
$var wire 1 A seg7_test2 [5] $end
$var wire 1 B seg7_test2 [4] $end
$var wire 1 C seg7_test2 [3] $end
$var wire 1 D seg7_test2 [2] $end
$var wire 1 E seg7_test2 [1] $end
$var wire 1 F seg7_test2 [0] $end
$var wire 1 G sm_clkenout $end
$var wire 1 H sw [7] $end
$var wire 1 I sw [6] $end
$var wire 1 J sw [5] $end
$var wire 1 K sw [4] $end
$var wire 1 L sw [3] $end
$var wire 1 M sw [2] $end
$var wire 1 N sw [1] $end
$var wire 1 O sw [0] $end

$scope module i1 $end
$var wire 1 P gnd $end
$var wire 1 Q vcc $end
$var wire 1 R unknown $end
$var wire 1 S devoe $end
$var wire 1 T devclrn $end
$var wire 1 U devpor $end
$var wire 1 V ww_devoe $end
$var wire 1 W ww_devclrn $end
$var wire 1 X ww_devpor $end
$var wire 1 Y ww_clkin_50 $end
$var wire 1 Z ww_rst_n $end
$var wire 1 [ ww_pb_n [3] $end
$var wire 1 \ ww_pb_n [2] $end
$var wire 1 ] ww_pb_n [1] $end
$var wire 1 ^ ww_pb_n [0] $end
$var wire 1 _ ww_sw [7] $end
$var wire 1 ` ww_sw [6] $end
$var wire 1 a ww_sw [5] $end
$var wire 1 b ww_sw [4] $end
$var wire 1 c ww_sw [3] $end
$var wire 1 d ww_sw [2] $end
$var wire 1 e ww_sw [1] $end
$var wire 1 f ww_sw [0] $end
$var wire 1 g ww_leds [7] $end
$var wire 1 h ww_leds [6] $end
$var wire 1 i ww_leds [5] $end
$var wire 1 j ww_leds [4] $end
$var wire 1 k ww_leds [3] $end
$var wire 1 l ww_leds [2] $end
$var wire 1 m ww_leds [1] $end
$var wire 1 n ww_leds [0] $end
$var wire 1 o ww_sm_clkenout $end
$var wire 1 p ww_blink_sigout $end
$var wire 1 q ww_seg7_test1 [6] $end
$var wire 1 r ww_seg7_test1 [5] $end
$var wire 1 s ww_seg7_test1 [4] $end
$var wire 1 t ww_seg7_test1 [3] $end
$var wire 1 u ww_seg7_test1 [2] $end
$var wire 1 v ww_seg7_test1 [1] $end
$var wire 1 w ww_seg7_test1 [0] $end
$var wire 1 x ww_seg7_test2 [6] $end
$var wire 1 y ww_seg7_test2 [5] $end
$var wire 1 z ww_seg7_test2 [4] $end
$var wire 1 { ww_seg7_test2 [3] $end
$var wire 1 | ww_seg7_test2 [2] $end
$var wire 1 } ww_seg7_test2 [1] $end
$var wire 1 ~ ww_seg7_test2 [0] $end
$var wire 1 !! ww_seg7_data [6] $end
$var wire 1 "! ww_seg7_data [5] $end
$var wire 1 #! ww_seg7_data [4] $end
$var wire 1 $! ww_seg7_data [3] $end
$var wire 1 %! ww_seg7_data [2] $end
$var wire 1 &! ww_seg7_data [1] $end
$var wire 1 '! ww_seg7_data [0] $end
$var wire 1 (! ww_seg7_char1 $end
$var wire 1 )! ww_seg7_char2 $end
$var wire 1 *! \pb_n[2]~input_o\ $end
$var wire 1 +! \pb_n[3]~input_o\ $end
$var wire 1 ,! \sw[0]~input_o\ $end
$var wire 1 -! \sw[1]~input_o\ $end
$var wire 1 .! \sw[2]~input_o\ $end
$var wire 1 /! \sw[3]~input_o\ $end
$var wire 1 0! \sw[4]~input_o\ $end
$var wire 1 1! \sw[5]~input_o\ $end
$var wire 1 2! \sw[6]~input_o\ $end
$var wire 1 3! \sw[7]~input_o\ $end
$var wire 1 4! \seg7_data[6]~output_o\ $end
$var wire 1 5! \leds[0]~output_o\ $end
$var wire 1 6! \leds[1]~output_o\ $end
$var wire 1 7! \leds[2]~output_o\ $end
$var wire 1 8! \leds[3]~output_o\ $end
$var wire 1 9! \leds[4]~output_o\ $end
$var wire 1 :! \leds[5]~output_o\ $end
$var wire 1 ;! \leds[6]~output_o\ $end
$var wire 1 <! \leds[7]~output_o\ $end
$var wire 1 =! \sm_clkenout~output_o\ $end
$var wire 1 >! \blink_sigout~output_o\ $end
$var wire 1 ?! \seg7_test1[0]~output_o\ $end
$var wire 1 @! \seg7_test1[1]~output_o\ $end
$var wire 1 A! \seg7_test1[2]~output_o\ $end
$var wire 1 B! \seg7_test1[3]~output_o\ $end
$var wire 1 C! \seg7_test1[4]~output_o\ $end
$var wire 1 D! \seg7_test1[5]~output_o\ $end
$var wire 1 E! \seg7_test1[6]~output_o\ $end
$var wire 1 F! \seg7_test2[0]~output_o\ $end
$var wire 1 G! \seg7_test2[1]~output_o\ $end
$var wire 1 H! \seg7_test2[2]~output_o\ $end
$var wire 1 I! \seg7_test2[3]~output_o\ $end
$var wire 1 J! \seg7_test2[4]~output_o\ $end
$var wire 1 K! \seg7_test2[5]~output_o\ $end
$var wire 1 L! \seg7_test2[6]~output_o\ $end
$var wire 1 M! \seg7_data[0]~output_o\ $end
$var wire 1 N! \seg7_data[1]~output_o\ $end
$var wire 1 O! \seg7_data[2]~output_o\ $end
$var wire 1 P! \seg7_data[3]~output_o\ $end
$var wire 1 Q! \seg7_data[4]~output_o\ $end
$var wire 1 R! \seg7_data[5]~output_o\ $end
$var wire 1 S! \seg7_char1~output_o\ $end
$var wire 1 T! \seg7_char2~output_o\ $end
$var wire 1 U! \clkin_50~input_o\ $end
$var wire 1 V! \SEVENSEG_MUX|clk_proc:COUNT[0]~0_combout\ $end
$var wire 1 W! \SEVENSEG_MUX|clk_proc:COUNT[0]~q\ $end
$var wire 1 X! \SEVENSEG_MUX|clk_proc:COUNT[1]~1_combout\ $end
$var wire 1 Y! \SEVENSEG_MUX|clk_proc:COUNT[1]~q\ $end
$var wire 1 Z! \SEVENSEG_MUX|clk_proc:COUNT[1]~2\ $end
$var wire 1 [! \SEVENSEG_MUX|clk_proc:COUNT[2]~1_combout\ $end
$var wire 1 \! \SEVENSEG_MUX|clk_proc:COUNT[2]~q\ $end
$var wire 1 ]! \SEVENSEG_MUX|clk_proc:COUNT[2]~2\ $end
$var wire 1 ^! \SEVENSEG_MUX|clk_proc:COUNT[3]~1_combout\ $end
$var wire 1 _! \SEVENSEG_MUX|clk_proc:COUNT[3]~q\ $end
$var wire 1 `! \SEVENSEG_MUX|clk_proc:COUNT[3]~2\ $end
$var wire 1 a! \SEVENSEG_MUX|clk_proc:COUNT[4]~1_combout\ $end
$var wire 1 b! \SEVENSEG_MUX|clk_proc:COUNT[4]~q\ $end
$var wire 1 c! \SEVENSEG_MUX|clk_proc:COUNT[4]~2\ $end
$var wire 1 d! \SEVENSEG_MUX|clk_proc:COUNT[5]~1_combout\ $end
$var wire 1 e! \SEVENSEG_MUX|clk_proc:COUNT[5]~q\ $end
$var wire 1 f! \SEVENSEG_MUX|clk_proc:COUNT[5]~2\ $end
$var wire 1 g! \SEVENSEG_MUX|clk_proc:COUNT[6]~1_combout\ $end
$var wire 1 h! \SEVENSEG_MUX|clk_proc:COUNT[6]~q\ $end
$var wire 1 i! \SEVENSEG_MUX|clk_proc:COUNT[6]~2\ $end
$var wire 1 j! \SEVENSEG_MUX|clk_proc:COUNT[7]~1_combout\ $end
$var wire 1 k! \SEVENSEG_MUX|clk_proc:COUNT[7]~q\ $end
$var wire 1 l! \SEVENSEG_MUX|clk_proc:COUNT[7]~2\ $end
$var wire 1 m! \SEVENSEG_MUX|clk_proc:COUNT[8]~1_combout\ $end
$var wire 1 n! \SEVENSEG_MUX|clk_proc:COUNT[8]~q\ $end
$var wire 1 o! \SEVENSEG_MUX|clk_proc:COUNT[8]~2\ $end
$var wire 1 p! \SEVENSEG_MUX|clk_proc:COUNT[9]~1_combout\ $end
$var wire 1 q! \SEVENSEG_MUX|clk_proc:COUNT[9]~q\ $end
$var wire 1 r! \SEVENSEG_MUX|clk_proc:COUNT[9]~2\ $end
$var wire 1 s! \SEVENSEG_MUX|clk_proc:COUNT[10]~1_combout\ $end
$var wire 1 t! \SEVENSEG_MUX|clk_proc:COUNT[10]~q\ $end
$var wire 1 u! \CLOCK_GEN|clk_divider:counter[0]~1_combout\ $end
$var wire 1 v! \rst_n~input_o\ $end
$var wire 1 w! \PB_FILL|rst_n_filtered~0_combout\ $end
$var wire 1 x! \SYNC_RST|dout~q\ $end
$var wire 1 y! \CLOCK_GEN|clk_divider:counter[0]~q\ $end
$var wire 1 z! \CLOCK_GEN|clk_divider:counter[0]~2\ $end
$var wire 1 {! \CLOCK_GEN|clk_divider:counter[1]~1_combout\ $end
$var wire 1 |! \CLOCK_GEN|clk_divider:counter[1]~q\ $end
$var wire 1 }! \CLOCK_GEN|clk_divider:counter[1]~2\ $end
$var wire 1 ~! \CLOCK_GEN|clk_divider:counter[2]~1_combout\ $end
$var wire 1 !" \CLOCK_GEN|clk_divider:counter[2]~q\ $end
$var wire 1 "" \CLOCK_GEN|clk_divider:counter[2]~2\ $end
$var wire 1 #" \CLOCK_GEN|clk_divider:counter[3]~1_combout\ $end
$var wire 1 $" \CLOCK_GEN|clk_divider:counter[3]~q\ $end
$var wire 1 %" \CLOCK_GEN|clk_divider:counter[3]~2\ $end
$var wire 1 &" \CLOCK_GEN|clk_divider:counter[4]~1_combout\ $end
$var wire 1 '" \CLOCK_GEN|clk_divider:counter[4]~q\ $end
$var wire 1 (" \CLOCK_GEN|clk_reg_extend~0_combout\ $end
$var wire 1 )" \CLOCK_GEN|clk_reg_extend~1_combout\ $end
$var wire 1 *" \CLOCK_GEN|sm_clken~combout\ $end
$var wire 1 +" \pb_n[0]~input_o\ $end
$var wire 1 ," \PB_FILL|pb_n_filtered[0]~0_combout\ $end
$var wire 1 -" \SYNC_NS|sreg~0_combout\ $end
$var wire 1 ." \SYNC_NS|dout~q\ $end
$var wire 1 /" \HOLDREG_NS|sreg~0_combout\ $end
$var wire 1 0" \HOLDREG_NS|sreg~q\ $end
$var wire 1 1" \pb_n[1]~input_o\ $end
$var wire 1 2" \PB_FILL|pb_n_filtered[1]~1_combout\ $end
$var wire 1 3" \SYNC_EW|sreg~0_combout\ $end
$var wire 1 4" \SYNC_EW|dout~q\ $end
$var wire 1 5" \MOORE_MAC|current_state.s11~q\ $end
$var wire 1 6" \MOORE_MAC|current_state.s12~q\ $end
$var wire 1 7" \MOORE_MAC|current_state.s13~q\ $end
$var wire 1 8" \MOORE_MAC|Selector1~0_combout\ $end
$var wire 1 9" \MOORE_MAC|current_state.s14~q\ $end
$var wire 1 :" \HOLDREG_EW|sreg~0_combout\ $end
$var wire 1 ;" \HOLDREG_EW|sreg~q\ $end
$var wire 1 <" \MOORE_MAC|Selector2~0_combout\ $end
$var wire 1 =" \MOORE_MAC|current_state.s15~q\ $end
$var wire 1 >" \MOORE_MAC|current_state.s0~0_combout\ $end
$var wire 1 ?" \MOORE_MAC|current_state.s0~q\ $end
$var wire 1 @" \MOORE_MAC|next_state.s1~0_combout\ $end
$var wire 1 A" \MOORE_MAC|current_state.s1~q\ $end
$var wire 1 B" \MOORE_MAC|next_state.s2~0_combout\ $end
$var wire 1 C" \MOORE_MAC|current_state.s2~q\ $end
$var wire 1 D" \MOORE_MAC|current_state.s3~q\ $end
$var wire 1 E" \MOORE_MAC|current_state.s4~q\ $end
$var wire 1 F" \MOORE_MAC|current_state.s5~q\ $end
$var wire 1 G" \MOORE_MAC|WideOr7~1_combout\ $end
$var wire 1 H" \MOORE_MAC|Selector0~0_combout\ $end
$var wire 1 I" \MOORE_MAC|current_state.s6~q\ $end
$var wire 1 J" \MOORE_MAC|current_state.s7~q\ $end
$var wire 1 K" \MOORE_MAC|current_state.s8~q\ $end
$var wire 1 L" \MOORE_MAC|next_state.s9~0_combout\ $end
$var wire 1 M" \MOORE_MAC|current_state.s9~q\ $end
$var wire 1 N" \MOORE_MAC|next_state.s10~0_combout\ $end
$var wire 1 O" \MOORE_MAC|current_state.s10~q\ $end
$var wire 1 P" \MOORE_MAC|WideOr6~0_combout\ $end
$var wire 1 Q" \CLOCK_GEN|blink_sig~0_combout\ $end
$var wire 1 R" \CLOCK_GEN|blink_sig~q\ $end
$var wire 1 S" \MOORE_MAC|Selector4~0_combout\ $end
$var wire 1 T" \MOORE_MAC|WideOr7~0_combout\ $end
$var wire 1 U" \MOORE_MAC|Selector3~2_combout\ $end
$var wire 1 V" \SEVENSEG_MUX|DOUT[3]~4_combout\ $end
$var wire 1 W" \TRAFFIC_EW|sevenseg[0]~4_combout\ $end
$var wire 1 X" \MOORE_MAC|WideOr7~2_combout\ $end
$var wire 1 Y" \SEVENSEG_MUX|DOUT_TEMP[6]~0_combout\ $end
$var wire 1 Z" \MOORE_MAC|WideOr7~combout\ $end
$var wire 1 [" \TRAFFIC_EW|sevenseg[0]~5_combout\ $end
$var wire 1 \" \TRAFFIC_EW|sevenseg[6]~6_combout\ $end
$var wire 1 ]" \TRAFFIC_NS|sevenseg[0]~5_combout\ $end
$var wire 1 ^" \TRAFFIC_NS|sevenseg[6]~4_combout\ $end
$var wire 1 _" \SEVENSEG_MUX|DOUT[0]~2_combout\ $end
$var wire 1 `" \SEVENSEG_MUX|DOUT[0]~3_combout\ $end
$var wire 1 a" \SEVENSEG_MUX|DOUT[0]~6_combout\ $end
$var wire 1 b" \SYNC_NS|sreg\ [1] $end
$var wire 1 c" \SYNC_NS|sreg\ [0] $end
$var wire 1 d" \PB_FILL|sreg4\ [3] $end
$var wire 1 e" \PB_FILL|sreg4\ [2] $end
$var wire 1 f" \PB_FILL|sreg4\ [1] $end
$var wire 1 g" \PB_FILL|sreg4\ [0] $end
$var wire 1 h" \SYNC_EW|sreg\ [1] $end
$var wire 1 i" \SYNC_EW|sreg\ [0] $end
$var wire 1 j" \PB_FILL|sreg0\ [3] $end
$var wire 1 k" \PB_FILL|sreg0\ [2] $end
$var wire 1 l" \PB_FILL|sreg0\ [1] $end
$var wire 1 m" \PB_FILL|sreg0\ [0] $end
$var wire 1 n" \CLOCK_GEN|clk_reg_extend\ [1] $end
$var wire 1 o" \CLOCK_GEN|clk_reg_extend\ [0] $end
$var wire 1 p" \SYNC_RST|sreg\ [1] $end
$var wire 1 q" \SYNC_RST|sreg\ [0] $end
$var wire 1 r" \PB_FILL|sreg1\ [3] $end
$var wire 1 s" \PB_FILL|sreg1\ [2] $end
$var wire 1 t" \PB_FILL|sreg1\ [1] $end
$var wire 1 u" \PB_FILL|sreg1\ [0] $end
$var wire 1 v" \SEVENSEG_MUX|ALT_INV_DOUT[0]~6_combout\ $end
$var wire 1 w" \TRAFFIC_EW|ALT_INV_sevenseg[0]~5_combout\ $end
$var wire 1 x" \SYNC_RST|ALT_INV_dout~q\ $end
$var wire 1 y" \SEVENSEG_MUX|ALT_INV_DOUT[3]~4_combout\ $end
$var wire 1 z" \MOORE_MAC|ALT_INV_WideOr7~0_combout\ $end
$var wire 1 {" \SEVENSEG_MUX|ALT_INV_clk_proc:COUNT[10]~q\ $end
$upscope $end
$upscope $end
$enddefinitions $end
#0
$dumpvars
0!
0"
1/
10
01
0G
0P
1Q
xR
1S
1T
1U
1V
1W
1X
0Y
1Z
0o
0p
1(!
0)!
x*!
x+!
x,!
x-!
x.!
0/!
x0!
x1!
x2!
x3!
04!
05!
06!
07!
08!
09!
0:!
0;!
0<!
0=!
0>!
1?!
0@!
0A!
0B!
0C!
0D!
0E!
0F!
0G!
0H!
0I!
0J!
0K!
0L!
1M!
0N!
0O!
0P!
0Q!
0R!
1S!
0T!
0U!
1V!
0W!
0X!
0Y!
0Z!
0[!
0\!
1]!
0^!
0_!
0`!
0a!
0b!
1c!
0d!
0e!
0f!
0g!
0h!
1i!
0j!
0k!
0l!
0m!
0n!
1o!
0p!
0q!
0r!
0s!
0t!
1u!
1v!
1w!
0x!
0y!
0z!
0{!
0|!
1}!
0~!
0!"
0""
0#"
0$"
1%"
0&"
0'"
0("
0)"
0*"
1+"
1,"
0-"
0."
0/"
00"
11"
12"
03"
04"
05"
06"
07"
08"
09"
0:"
0;"
0<"
0="
1>"
0?"
1@"
0A"
0B"
0C"
0D"
0E"
0F"
0G"
0H"
0I"
0J"
0K"
0L"
0M"
0N"
0O"
0P"
0Q"
0R"
0S"
1T"
0U"
1V"
1W"
1X"
0Y"
0Z"
0["
0\"
0]"
0^"
0_"
0`"
0a"
1v"
1w"
1x"
0y"
0z"
1{"
x+
x,
1-
1.
xH
xI
xJ
xK
0L
xM
xN
xO
0#
0$
0%
0&
0'
0(
0)
0*
09
0:
0;
0<
0=
0>
1?
0@
0A
0B
0C
0D
0E
0F
02
03
04
05
06
07
18
x[
x\
1]
1^
x_
x`
xa
xb
0c
xd
xe
xf
0g
0h
0i
0j
0k
0l
0m
0n
0q
0r
0s
0t
0u
0v
1w
0x
0y
0z
0{
0|
0}
0~
0!!
0"!
0#!
0$!
0%!
0&!
1'!
0b"
0c"
0d"
0e"
0f"
0g"
0h"
0i"
0j"
0k"
0l"
0m"
0n"
0o"
0p"
0q"
0r"
0s"
0t"
0u"
$end
#10000
1"
1Y
1U!
1W!
1g"
1p"
1y!
1m"
1b"
1u"
1h"
13"
1-"
0u!
1z!
0V!
1X!
1{!
#20000
0"
0Y
0U!
#30000
1"
1Y
1U!
0W!
1Y!
1f"
1q"
0y!
1|!
1l"
1c"
1t"
1i"
02"
0,"
0{!
0}!
1u!
0z!
0w!
1V!
1{!
1}!
1~!
0~!
#40000
0"
0/
0Y
0Z
0v!
0U!
#50000
1"
1Y
1U!
1W!
0g"
1e"
0p"
1x!
1y!
1k"
0b"
1."
1s"
0h"
14"
0x"
0u!
1z!
0-"
03"
0V!
0X!
1Z!
1[!
0{!
0}!
1~!
#60000
0"
0Y
0U!
#70000
1"
1Y
1U!
0W!
0Y!
1\!
0f"
1d"
0q"
0y!
0|!
1j"
0c"
1r"
0i"
1{!
1}!
1u!
0z!
0[!
0]!
1V!
0Z!
1[!
1]!
1^!
0{!
0~!
0^!
#80000
0"
0Y
0U!
#90000
1"
1Y
1U!
1W!
0e"
0x!
1x"
1/"
1:"
0V!
1X!
#100000
0"
0Y
0U!
#110000
1"
1Y
1U!
0W!
1Y!
0d"
1y!
0."
10"
04"
1;"
18!
16!
0u!
1z!
1w!
1V!
1k
1m
1{!
1)
1'
#120000
0"
0Y
0U!
#130000
1"
1Y
1U!
1W!
1p"
0y!
1|!
0{!
0}!
1u!
0z!
0V!
0X!
1Z!
0[!
0]!
1{!
1}!
1~!
0~!
1^!
#140000
0"
0Y
0U!
#150000
1"
1Y
1U!
0W!
0Y!
0\!
1_!
1q"
1y!
0u!
1z!
0^!
1`!
1[!
1]!
1V!
0Z!
0[!
1^!
0`!
1a!
0{!
0}!
1~!
0a!
#160000
0"
0Y
0U!
#170000
1"
1Y
1U!
1W!
1x!
0y!
0|!
1!"
0x"
0~!
1""
1{!
1}!
1u!
0z!
0/"
0:"
0V!
1X!
0{!
1~!
0""
1#"
0#"
#180000
0"
0Y
0U!
#190000
1"
1Y
1U!
0W!
1Y!
0!"
00"
0;"
08!
06!
0~!
1V!
0k
0m
0)
0'
#200000
0"
0Y
0U!
#210000
1"
1Y
1U!
1W!
0V!
0X!
1Z!
1[!
#220000
0"
0Y
0U!
#230000
1"
1Y
1U!
0W!
0Y!
1\!
0[!
0]!
1V!
0Z!
1[!
1]!
0^!
1`!
1a!
1^!
0`!
0a!
#240000
0"
0Y
0U!
#250000
1"
1Y
1U!
1W!
0V!
1X!
#260000
0"
0Y
0U!
#270000
1"
1Y
1U!
0W!
1Y!
1V!
#280000
0"
0Y
0U!
#290000
1"
1Y
1U!
1W!
0V!
0X!
1Z!
0[!
0]!
0^!
1`!
1a!
#300000
0"
0Y
0U!
#310000
1"
1Y
1U!
0W!
0Y!
0\!
0_!
1b!
0a!
0c!
1^!
0`!
1[!
1]!
1V!
0Z!
0[!
0^!
1a!
1c!
1d!
0d!
#320000
0"
1/
0Y
1Z
1v!
0U!
#330000
1"
1Y
1U!
1W!
1g"
0V!
1X!
#340000
0"
0Y
0U!
#350000
1"
1Y
1U!
0W!
1Y!
1f"
0w!
1V!
#360000
0"
0Y
0U!
#370000
1"
1Y
1U!
1W!
1e"
0p"
0V!
0X!
1Z!
1[!
#380000
0"
0Y
0U!
#390000
1"
1Y
1U!
0W!
0Y!
1\!
1d"
0q"
0[!
0]!
1V!
0Z!
1[!
1]!
1^!
0^!
#400000
0"
0Y
0U!
#410000
1"
1Y
1U!
1W!
0x!
1x"
0V!
1X!
#420000
0"
0Y
0U!
#430000
1"
1Y
1U!
0W!
1Y!
1y!
0u!
1z!
1V!
1{!
#440000
0"
0Y
0U!
#450000
1"
1Y
1U!
1W!
0y!
1|!
0{!
0}!
1u!
0z!
0V!
0X!
1Z!
0[!
0]!
1{!
1}!
1~!
0~!
1^!
#460000
0"
0Y
0U!
#470000
1"
1Y
1U!
0W!
0Y!
0\!
1_!
1y!
0u!
1z!
0^!
1`!
1[!
1]!
1V!
0Z!
0[!
1^!
0`!
0a!
0c!
0{!
0}!
1~!
1d!
1a!
1c!
0d!
#480000
0"
0Y
0U!
#490000
1"
1Y
1U!
1W!
0y!
0|!
1!"
0~!
1""
1Q"
1{!
1}!
1u!
0z!
0V!
1X!
0{!
1~!
0""
1#"
0#"
#500000
0"
0Y
0U!
#510000
1"
1Y
1U!
0W!
1Y!
1y!
1R"
1>!
1U"
0u!
1z!
1V!
1p
1I!
1{!
1!
1{
1C
#520000
0"
0Y
0U!
#530000
1"
1Y
1U!
1W!
0y!
1|!
0{!
0}!
1u!
0z!
0V!
0X!
1Z!
1[!
1{!
1}!
0~!
1""
1#"
1~!
0""
0#"
#540000
0"
0Y
0U!
#550000
1"
1Y
1U!
0W!
0Y!
1\!
1y!
0u!
1z!
0[!
0]!
1V!
0Z!
1[!
1]!
0^!
1`!
0{!
0}!
0~!
1""
0a!
0c!
1^!
0`!
1a!
1c!
1d!
1#"
0d!
#560000
0"
0Y
0U!
#570000
1"
1Y
1U!
1W!
0y!
0|!
0!"
1$"
0#"
0%"
1~!
0""
0Q"
1{!
1}!
1u!
0z!
0V!
1X!
0{!
0~!
1#"
1%"
1&"
0&"
#580000
0"
0Y
0U!
#590000
1"
1Y
1U!
0W!
1Y!
1y!
0R"
0>!
0U"
0u!
1z!
1V!
0p
0I!
1{!
0!
0{
0C
#600000
0"
0Y
0U!
#610000
1"
1Y
1U!
1W!
0y!
1|!
0{!
0}!
1u!
0z!
0V!
0X!
1Z!
0[!
0]!
1{!
1}!
1~!
0~!
0^!
1`!
0a!
0c!
1d!
#620000
0"
0Y
0U!
#630000
1"
1Y
1U!
0W!
0Y!
0\!
0_!
0b!
1e!
1y!
0u!
1z!
0d!
1f!
1a!
1c!
1^!
0`!
1[!
1]!
1V!
0Z!
0[!
0^!
0a!
1d!
0f!
1g!
0{!
0}!
1~!
0g!
#640000
0"
0Y
0U!
#650000
1"
1Y
1U!
1W!
0y!
0|!
1!"
0~!
1""
1Q"
1{!
1}!
1u!
0z!
0V!
1X!
0{!
1~!
0""
0#"
0%"
1&"
1#"
1%"
0&"
#660000
0"
0Y
0U!
#670000
1"
1Y
1U!
0W!
1Y!
1y!
1R"
1>!
1U"
0u!
1z!
1V!
1p
1I!
1{!
1!
1{
1C
#680000
0"
0Y
0U!
#690000
1"
1Y
1U!
1W!
0y!
1|!
0{!
0}!
1u!
0z!
0V!
0X!
1Z!
1[!
1{!
1}!
0~!
1""
0#"
0%"
1~!
0""
1#"
1%"
1&"
0&"
#700000
0"
0Y
0U!
#710000
1"
1Y
1U!
0W!
0Y!
1\!
1y!
0u!
1z!
0[!
0]!
1V!
0Z!
1[!
1]!
1^!
0{!
0}!
0~!
1""
0^!
0#"
0%"
1&"
#720000
0"
0Y
0U!
#730000
1"
1Y
1U!
1W!
0y!
0|!
0!"
0$"
1'"
0&"
1("
1#"
1%"
1~!
0""
0Q"
1{!
1}!
1u!
0z!
0V!
1X!
0{!
0~!
0#"
1&"
#740000
0"
0Y
0U!
#750000
1"
1Y
1U!
0W!
1Y!
1y!
1o"
0R"
0>!
0U"
1)"
1*"
0u!
1z!
1V!
0p
1=!
0I!
1{!
1?"
1A"
0!
1o
0{
1B"
0@"
1G
0C
#760000
0"
0Y
0U!
#770000
1"
1Y
1U!
1W!
0y!
1|!
1n"
0*"
0{!
0}!
1u!
0z!
0V!
0X!
1Z!
0=!
0[!
0]!
1{!
1}!
1~!
0o
0~!
1^!
0G
#780000
0"
0Y
0U!
#790000
1"
1Y
1U!
0W!
0Y!
0\!
1_!
1y!
0u!
1z!
0^!
1`!
1[!
1]!
1V!
0Z!
0[!
1^!
0`!
1a!
0{!
0}!
1~!
0a!
#800000
0"
0Y
0U!
#810000
1"
1Y
1U!
1W!
0y!
0|!
1!"
0~!
1""
1Q"
1{!
1}!
1u!
0z!
0V!
1X!
0{!
1~!
0""
1#"
0#"
#820000
0"
0Y
0U!
#830000
1"
1Y
1U!
0W!
1Y!
1y!
1R"
1>!
1U"
0u!
1z!
1V!
1p
1I!
1{!
1!
1{
1C
#840000
0"
0Y
0U!
#850000
1"
1Y
1U!
1W!
0y!
1|!
0{!
0}!
1u!
0z!
0V!
0X!
1Z!
1[!
1{!
1}!
0~!
1""
1#"
1~!
0""
0#"
#860000
0"
0Y
0U!
#870000
1"
1Y
1U!
0W!
0Y!
1\!
1y!
0u!
1z!
0[!
0]!
1V!
0Z!
1[!
1]!
0^!
1`!
0{!
0}!
0~!
1""
1a!
1^!
0`!
0a!
1#"
#880000
0"
0Y
0U!
#890000
1"
1Y
1U!
1W!
0y!
0|!
0!"
1$"
0#"
0%"
1~!
0""
0Q"
1{!
1}!
1u!
0z!
0V!
1X!
0{!
0~!
1#"
1%"
0&"
1&"
#900000
0"
0Y
0U!
#910000
1"
1Y
1U!
0W!
1Y!
1y!
0R"
0>!
0U"
0u!
1z!
1V!
0p
0I!
1{!
0!
0{
0C
#920000
0"
0Y
0U!
#930000
1"
1Y
1U!
1W!
0y!
1|!
0{!
0}!
1u!
0z!
0V!
0X!
1Z!
0[!
0]!
1{!
1}!
1~!
0~!
0^!
1`!
1a!
#940000
0"
0Y
0U!
#950000
1"
1Y
1U!
0W!
0Y!
0\!
0_!
1b!
1y!
0u!
1z!
0a!
0c!
1^!
0`!
1[!
1]!
1V!
0Z!
0[!
0^!
1a!
1c!
0d!
1f!
0{!
0}!
1~!
1g!
1d!
0f!
0g!
#960000
0"
0Y
0U!
#970000
1"
1Y
1U!
1W!
0y!
0|!
1!"
0~!
1""
1Q"
1{!
1}!
1u!
0z!
0V!
1X!
0{!
1~!
0""
0#"
0%"
0&"
1#"
1%"
1&"
#980000
0"
0Y
0U!
#990000
1"
1Y
1U!
0W!
1Y!
1y!
1R"
1>!
1U"
0u!
1z!
1V!
1p
1I!
1{!
1!
1{
1C
#1000000
0"
0Y
0U!
#1010000
1"
1Y
1U!
1W!
0y!
1|!
0{!
0}!
1u!
0z!
0V!
0X!
1Z!
1[!
1{!
1}!
0~!
1""
0#"
0%"
1~!
0""
1#"
1%"
0&"
1&"
#1020000
0"
0Y
0U!
#1030000
1"
1Y
1U!
0W!
0Y!
1\!
1y!
0u!
1z!
0[!
0]!
1V!
0Z!
1[!
1]!
1^!
0{!
0}!
0~!
1""
0^!
0#"
0%"
0&"
#1040000
0"
0Y
0U!
#1050000
1"
1Y
1U!
1W!
0y!
0|!
0!"
0$"
0'"
1&"
0("
1#"
1%"
1~!
0""
0Q"
1{!
1}!
1u!
0z!
0V!
1X!
0{!
0~!
0#"
0&"
#1060000
0"
0Y
0U!
#1070000
1"
1Y
1U!
0W!
1Y!
1y!
0o"
0R"
0>!
0U"
0)"
0u!
1z!
1V!
0p
0I!
1{!
0!
0{
0C
#1080000
0"
0Y
0U!
#1090000
1"
1Y
1U!
1W!
0y!
1|!
0n"
0{!
0}!
1u!
0z!
0V!
0X!
1Z!
0[!
0]!
1{!
1}!
1~!
0~!
1^!
#1100000
0"
0Y
0U!
#1110000
1"
1Y
1U!
0W!
0Y!
0\!
1_!
1y!
0u!
1z!
0^!
1`!
1[!
1]!
1V!
0Z!
0[!
1^!
0`!
0a!
0c!
0{!
0}!
1~!
0d!
1f!
1a!
1c!
1d!
0f!
1g!
0g!
#1120000
0"
0Y
0U!
#1130000
1"
1Y
1U!
1W!
0y!
0|!
1!"
0~!
1""
1Q"
1{!
1}!
1u!
0z!
0V!
1X!
0{!
1~!
0""
1#"
0#"
#1140000
0"
0Y
0U!
